…
## What is mean total number of steps taken per day?

```r
totaldf <- cleandf %>% 
    group_by(fixeddate) %>% 
    summarise(totsteps=sum(steps), meansteps=mean(steps), mediansteps=median(steps))

as_tibble(totaldf)
```

```
## # A tibble: 53 x 4
##    fixeddate  totsteps meansteps mediansteps
##    <date>        <int>     <dbl>       <dbl>
##  1 2012-10-02      126     0.438           0
##  2 2012-10-03    11352    39.4             0
##  3 2012-10-04    12116    42.1             0
##  4 2012-10-05    13294    46.2             0
##  5 2012-10-06    15420    53.5             0
##  6 2012-10-07    11015    38.2             0
##  7 2012-10-09    12811    44.5             0
##  8 2012-10-10     9900    34.4             0
##  9 2012-10-11    10304    35.8             0
## 10 2012-10-12    17382    60.4             0
## # … with 43 more rows
```
…
